============================================================
  Generated by:           Genus(TM) Synthesis Solution 19.11-s087_1
  Generated on:           Aug 18 2021  05:08:43 pm
  Module:                 top_ft
  Operating conditions:   NCCOM 
  Operating conditions:   WCCOM 
  Operating conditions:   WCCOM 
  Operating conditions:   BCCOM 
  Interconnect mode:      global
  Area mode:              physical library
============================================================


Path 1: VIOLATED (-132 ps) Setup Check with Pin dut_pmu_ahb/Slvft.ham_pbits_reg[192]/CP->D
           View: view_slow
          Group: C2C
     Startpoint: (R) dut_pmu_ahb/slv_reg_reg[1][18]/CP
          Clock: (R) clk
       Endpoint: (R) dut_pmu_ahb/Slvft.ham_pbits_reg[192]/D
          Clock: (R) clk

                     Capture       Launch     
        Clock Edge:+    2000            0     
       Src Latency:+       0            0     
       Net Latency:+       0 (I)        0 (I) 
           Arrival:=    2000            0     
                                              
             Setup:-      34                  
     Required Time:=    1966                  
      Launch Clock:-       0                  
         Data Path:-    2097                  
             Slack:=    -132                  

#------------------------------------------------------------------------------------------------------------------------
#             Timing Point               Flags    Arc   Edge       Cell        Fanout  Load Trans Delay Arrival Instance 
#                                                                                      (fF)  (ps)  (ps)   (ps)  Location 
#------------------------------------------------------------------------------------------------------------------------
  dut_pmu_ahb/slv_reg_reg[1][18]/CP      -       -      R     (arrival)          3326     -     0     -       0    (-,-) 
  dut_pmu_ahb/slv_reg_reg[1][18]/Q       -       CP->Q  R     DFKCNQD4HPBWPLVT      5  28.3    63   147     147    (-,-) 
  dut_pmu_ahb/g263565/ZN                 -       I->ZN  F     INVD6HPBWPLVT         4  19.2    28    30     177    (-,-) 
  dut_pmu_ahb/g272189/Z                  -       A1->Z  F     AO22D2HPBWPLVT        2  12.6    59   111     288    (-,-) 
  dut_pmu_ahb/g269132/ZN                 -       A1->ZN F     INR2D4HPBWPLVT        1  11.3    28    62     350    (-,-) 
  dut_pmu_ahb/g257375/ZN                 -       A1->ZN R     NR2XD4HPBWPLVT        2  13.9    40    34     384    (-,-) 
  dut_pmu_ahb/g268730/Z                  -       A1->Z  R     AN2D4HPBWPLVT         1  12.1    38    68     452    (-,-) 
  dut_pmu_ahb/g254533/ZN                 -       A1->ZN F     NR2XD4HPBWPLVT        2  13.7    33    29     480    (-,-) 
  dut_pmu_ahb/g254083/ZN                 -       A1->ZN R     ND2D3HPBWPLVT         1   8.5    40    30     510    (-,-) 
  dut_pmu_ahb/g271584/ZN                 -       B->ZN  F     OAI21D4HPBWPLVT       2  16.1    62    57     567    (-,-) 
  dut_pmu_ahb/g253718/ZN                 -       I->ZN  R     INVD4HPBWPLVT         3  16.9    40    42     609    (-,-) 
  dut_pmu_ahb/g253446/ZN                 -       A1->ZN F     ND2D4HPBWPLVT         2   8.0    33    31     641    (-,-) 
  dut_pmu_ahb/g247268/Z                  -       S->Z   R     MUX2D4HPBWPLVT        1  13.5    53    98     738    (-,-) 
  dut_pmu_ahb/g246446/ZN                 -       A1->ZN F     ND2D8HPBWPLVT         3  29.0    52    48     786    (-,-) 
  dut_pmu_ahb/inst_pmu_raw/g149760/ZN    -       I->ZN  R     INVD16HPBWPLVT        6  62.5    38    39     826    (-,-) 
  dut_pmu_ahb/inst_pmu_raw/g149755/ZN    -       I->ZN  F     INVD8HPBWPLVT         4  40.3    30    30     855    (-,-) 
  dut_pmu_ahb/inst_pmu_raw/g146559/ZN    -       A2->ZN R     NR2XD3HPBWPLVT        3  24.6    75    60     916    (-,-) 
  dut_pmu_ahb/inst_pmu_raw/g146461/ZN    -       A1->ZN F     NR2XD3HPBWPLVT        1  11.3    35    39     955    (-,-) 
  dut_pmu_ahb/inst_pmu_raw/g146299/ZN    -       A1->ZN R     NR2XD4HPBWPLVT        1  25.1    61    47    1002    (-,-) 
  dut_pmu_ahb/inst_pmu_raw/g145937/ZN    -       I->ZN  F     INVD16HPBWPLVT       29 131.6    47    46    1048    (-,-) 
  dut_pmu_ahb/inst_pmu_raw/g145935/ZN    -       I->ZN  R     INVD8HPBWPLVT         4  25.9    33    34    1082    (-,-) 
  dut_pmu_ahb/inst_pmu_raw/g144980/ZN    -       A1->ZN F     NR2XD2HPBWPLVT        1   6.8    34    27    1109    (-,-) 
  dut_pmu_ahb/inst_pmu_raw/g144332/ZN    -       A2->ZN R     NR2D3HPBWPLVT         2  10.0    71    58    1167    (-,-) 
  dut_pmu_ahb/inst_pmu_raw/g142784/ZN    -       A3->ZN F     NR3D2HPBWPLVT         1   8.7    46    50    1217    (-,-) 
  dut_pmu_ahb/inst_pmu_raw/g142713/ZN    -       A2->ZN R     ND2D4HPBWPLVT         1   7.5    29    32    1250    (-,-) 
  dut_pmu_ahb/inst_pmu_raw/g142625/ZN    -       A2->ZN F     NR2XD2HPBWPLVT        1   8.1    35    33    1283    (-,-) 
  dut_pmu_ahb/inst_pmu_raw/g142538/ZN    -       A2->ZN R     AOI21D4HPBWPLVT       2  10.3    74    57    1340    (-,-) 
  dut_pmu_ahb/inst_pmu_raw/g142522/ZN    -       A1->ZN F     NR2XD2HPBWPLVT        1   8.3    37    40    1380    (-,-) 
  dut_pmu_ahb/g127134/ZN                 -       A1->ZN R     ND2D4HPBWPLVT         1   8.3    37    28    1408    (-,-) 
  dut_pmu_ahb/g127000/ZN                 -       B1->ZN F     IND2D4HPBWPLVT        3  13.0    45    37    1445    (-,-) 
  dut_pmu_ahb/g126584/Z                  -       S->Z   R     MUX2D4HPBWPLVT        2  14.3    54   103    1548    (-,-) 
  dut_pmu_ahb/g270315/Z                  -       A2->Z  R     AN2D4HPBWPLVT         1   9.7    34    71    1619    (-,-) 
  dut_pmu_ahb/g126295/ZN                 -       A1->ZN F     NR2XD3HPBWPLVT        2  10.0    32    27    1646    (-,-) 
  dut_pmu_ahb/g270295/ZN                 -       A1->ZN F     IND2D4HPBWPLVT        1   8.3    34    62    1709    (-,-) 
  dut_pmu_ahb/g126122/ZN                 -       A1->ZN R     ND2D4HPBWPLVT         2  13.1    39    32    1741    (-,-) 
  dut_pmu_ahb/fopt274936/ZN              -       I->ZN  F     INVD4HPBWPLVT         2  11.2    21    24    1764    (-,-) 
  dut_pmu_ahb/g126077/ZN                 -       A1->ZN R     ND2D4HPBWPLVT         1   5.4    25    20    1785    (-,-) 
  dut_pmu_ahb/g126043/ZN                 -       A1->ZN F     ND2D2HPBWPLVT         1   5.2    36    30    1815    (-,-) 
  dut_pmu_ahb/g125992/Z                  -       S->Z   F     MUX2D4HPBWPLVT        2  12.4    52   101    1917    (-,-) 
  dut_pmu_ahb/g125956/ZN                 -       A1->ZN R     ND2D2HPBWPLVT         1   9.0    46    42    1959    (-,-) 
  dut_pmu_ahb/g125937/ZN                 -       A2->ZN F     ND2D4HPBWPLVT         2  12.4    42    41    2000    (-,-) 
  dut_pmu_ahb/fopt274947/ZN              -       I->ZN  R     INVD4HPBWPLVT         1   5.5    20    24    2024    (-,-) 
  dut_pmu_ahb/g125904/ZN                 -       A1->ZN F     AOI22D2HPBWPLVT       1   6.9    67    37    2060    (-,-) 
  dut_pmu_ahb/g125884/ZN                 -       A1->ZN R     NR2XD2HPBWPLVT        1   4.1    36    37    2097    (-,-) 
  dut_pmu_ahb/Slvft.ham_pbits_reg[192]/D -       -      R     DFQD1HPBWPLVT         1     -     -     0    2097    (-,-) 
#------------------------------------------------------------------------------------------------------------------------


