============================================================
  Generated by:           Genus(TM) Synthesis Solution 19.11-s087_1
  Generated on:           Aug 18 2021  05:56:35 pm
  Module:                 top_ft
  Operating conditions:   NCCOM 
  Operating conditions:   WCCOM 
  Operating conditions:   WCCOM 
  Operating conditions:   BCCOM 
  Interconnect mode:      global
  Area mode:              physical library
============================================================


Path 1: MET (115 ps) Late External Delay Assertion at pin intr_overflow_o
           View: view_slow
          Group: I2O
     Startpoint: (F) hwdata_i[25]
          Clock: (R) clk
       Endpoint: (F) intr_overflow_o
          Clock: (R) clk

                     Capture       Launch     
        Clock Edge:+    2000            0     
        Drv Adjust:+       0            0     
       Src Latency:+       0            0     
       Net Latency:+       0 (I)        0 (I) 
           Arrival:=    2000            0     
                                              
      Output Delay:-     100                  
     Required Time:=    1900                  
      Launch Clock:-       0                  
       Input Delay:-     100                  
         Data Path:-    1685                  
             Slack:=     115                  

Exceptions/Constraints:
  input_delay              100             top_ft_65.sdc_1_line_11_205_1 
  output_delay             100             top_ft_65.sdc_1_line_12_302_1 

#--------------------------------------------------------------------------------------------------------------------
#            Timing Point             Flags    Arc   Edge      Cell        Fanout  Load Trans Delay Arrival Instance 
#                                                                                  (fF)  (ps)  (ps)   (ps)  Location 
#--------------------------------------------------------------------------------------------------------------------
  hwdata_i[25]                        -       -      F     (arrival)            1   5.7   200     0     100    (-,-) 
  dut_pmu_ahb/g256715/ZN              -       A2->ZN R     NR2D2HPBWPLVT       13  44.4   342   250     350    (-,-) 
  dut_pmu_ahb/g256036/ZN              -       I->ZN  F     INVD2HPBWPLVT       10  27.4   131   122     473    (-,-) 
  dut_pmu_ahb/drc_buf_sp285433/Z      -       I->Z   F     CKBD1HPBWPLVT       10  28.6   257   201     674    (-,-) 
  dut_pmu_ahb/g251157/ZN              -       A2->ZN R     ND2D1HPBWPLVT        2   9.7   119   125     798    (-,-) 
  dut_pmu_ahb/g244916/ZN              -       B->ZN  F     OAI21D2HPBWPLVT      1   5.8    57    66     865    (-,-) 
  dut_pmu_ahb/inst_pmu_raw/g159319/ZN -       B1->ZN R     IND2D2HPBWPLVT       1   5.5    36    38     903    (-,-) 
  dut_pmu_ahb/inst_pmu_raw/g159318/ZN -       B->ZN  F     OAI21D2HPBWPLVT      1   5.4    50    48     951    (-,-) 
  dut_pmu_ahb/inst_pmu_raw/g151262/ZN -       B->ZN  R     AOI21D2HPBWPLVT      2  10.3   115    94    1045    (-,-) 
  dut_pmu_ahb/inst_pmu_raw/g143227/ZN -       A1->ZN F     NR2XD2HPBWPLVT       1   6.9    43    44    1089    (-,-) 
  dut_pmu_ahb/inst_pmu_raw/g153781/ZN -       A1->ZN R     ND2D3HPBWPLVT        1   8.7    36    33    1122    (-,-) 
  dut_pmu_ahb/inst_pmu_raw/g152881/ZN -       A2->ZN F     NR2D4HPBWPLVT        1   8.3    22    24    1146    (-,-) 
  dut_pmu_ahb/inst_pmu_raw/g152880/ZN -       A1->ZN R     ND2D4HPBWPLVT        1   9.7    32    25    1171    (-,-) 
  dut_pmu_ahb/inst_pmu_raw/g152879/ZN -       A1->ZN F     NR2XD3HPBWPLVT       1   7.9    28    25    1196    (-,-) 
  dut_pmu_ahb/inst_pmu_raw/g136/ZN    -       A1->ZN R     AOI21D4HPBWPLVT      2  11.9    80    51    1247    (-,-) 
  dut_pmu_ahb/inst_pmu_raw/g135/ZN    -       I->ZN  F     INVD0HPBWPLVT        2   6.4    73    66    1313    (-,-) 
  dut_pmu_ahb/inst_pmu_raw/g133/ZN    -       B1->ZN R     INR2D1HPBWPLVT       1   4.1    92    75    1388    (-,-) 
  dut_pmu_ahb/inst_pmu_raw/g132/ZN    -       A2->ZN F     ND2D1HPBWPLVT        1   5.3    68    65    1453    (-,-) 
  dut_pmu_ahb/inst_pmu_raw/g142484/ZN -       A1->ZN R     NR2D2HPBWPLVT        1   8.1    78    65    1518    (-,-) 
  dut_pmu_ahb/inst_pmu_raw/g151210/ZN -       B1->ZN F     IIND4D4HPBWPLVT      1   7.9    83    76    1595    (-,-) 
  dut_pmu_ahb/inst_pmu_raw/g151119/ZN -       B1->ZN R     IND2D4HPBWP          1  25.1    76    70    1665    (-,-) 
  dut_pmu_ahb/inst_pmu_raw/g142480/ZN -       I->ZN  F     INVD16HPBWPLVT       1 502.6   159   113    1778    (-,-) 
  intr_overflow_o                     -       -      F     (port)               -     -     -     8    1785    (-,-) 
#--------------------------------------------------------------------------------------------------------------------


