Command: report datapath > /users/gcabo/bsc_pmu/synth/genus/genus_build/tsmc_10tracks_reports/top_ft_datapath_incr.rpt
============================================================
  Generated by:           Genus(TM) Synthesis Solution 19.11-s087_1
  Generated on:           Aug 18 2021  05:56:36 pm
  Module:                 top_ft
  Operating conditions:   NCCOM 
  Operating conditions:   WCCOM 
  Operating conditions:   WCCOM 
  Operating conditions:   BCCOM 
  Interconnect mode:      global
  Area mode:              physical library
============================================================


      Type        CellArea Percentage 
--------------------------------------
datapath modules      0.00       0.00 
external muxes        0.00       0.00 
others           153809.60     100.00 
--------------------------------------
total            153809.60     100.00 

