  =================
   Message Summary
  =================
---------------------------------------------------------------------------------------------------------------------------------------------------------------------------------------------------------------------------------
|    Id     |  Sev   |Count |                                                                                           Message Text                                                                                            |
---------------------------------------------------------------------------------------------------------------------------------------------------------------------------------------------------------------------------------
| PHYS-1011 |Warning |    2 |Attribute design_process_node is not set for this design.                                                                                                                                          |
|           |        |      |When attribute design_process_node is not set to an appropriate integer value >=5 and <=250, then Innovus will assume its own default value for the design process node. See the Innovus           |
|           |        |      | setDesignMode -process <> command for more information about what this setting does.                                                                                                              |
| PHYS-90   |Info    |   22 |Generating design database.                                                                                                                                                                        |
|           |        |      |The database contains all the files required to restore the design in the specified application.                                                                                                   |
| WSDF-104  |Warning |    2 |Default value for an option has changed in this release.                                                                                                                                           |
|           |        |      |Specify the option explicitly.                                                                                                                                                                     |
---------------------------------------------------------------------------------------------------------------------------------------------------------------------------------------------------------------------------------
