============================================================
  Generated by:           Genus(TM) Synthesis Solution 19.11-s087_1
  Generated on:           Aug 17 2021  04:05:23 pm
  Module:                 top
  Operating conditions:   NCCOM 
  Operating conditions:   WCCOM 
  Operating conditions:   WCCOM 
  Operating conditions:   BCCOM 
  Interconnect mode:      global
  Area mode:              physical library
============================================================

                          Instance                                  Module         Cell Count  Cell Area  Net Area   Total Area 
--------------------------------------------------------------------------------------------------------------------------------
top                                                                                     52618 227615.600 95183.978   322799.578 
  dut_ft_pmu_ahb_inst_pmu_raw                                PMU_raw                    13121  56403.600 20570.755    76974.355 
    inst_quota                                               PMU_quota                   1594   7227.200  2388.563     9615.763 
    inst_MCCU                                                MCCU                        1704   6145.200  2522.430     8667.630 
  dut_pmu_ahb_inst_pmu_raw                                   PMU_raw_0                   9087  36342.800 14472.581    50815.381 
  dut_ft_pmu_ahb_Slvft.slv_ham_dec[39].slv_hamming32t26d_dec hamming32t26d_dec_39         206    934.800   271.100     1205.900 
  dut_ft_pmu_ahb_Slvft.slv_ham_dec[48].slv_hamming32t26d_dec hamming32t26d_dec_48         213    922.000   277.011     1199.011 
  dut_ft_pmu_ahb_Slvft.slv_ham_dec[47].slv_hamming32t26d_dec hamming32t26d_dec_47         218    891.600   286.506     1178.106 
  dut_ft_pmu_ahb_Slvft.slv_ham_dec[38].slv_hamming32t26d_dec hamming32t26d_dec_38         205    841.200   264.314     1105.514 
  dut_ft_pmu_ahb_Slvft.slv_ham_dec[35].slv_hamming32t26d_dec hamming32t26d_dec_35         188    831.200   246.171     1077.371 
  dut_ft_pmu_ahb_Slvft.slv_ham_dec[34].slv_hamming32t26d_dec hamming32t26d_dec_34         198    816.000   255.283     1071.283 
  dut_ft_pmu_ahb_Slvft.slv_ham_dec[40].slv_hamming32t26d_dec hamming32t26d_dec_40         202    798.400   261.632     1060.032 
  dut_ft_pmu_ahb_Slvft.slv_ham_dec[33].slv_hamming32t26d_dec hamming32t26d_dec_33         189    787.200   243.599     1030.799 
  dut_ft_pmu_ahb_Slvft.slv_ham_dec[36].slv_hamming32t26d_dec hamming32t26d_dec_36         177    743.600   231.832      975.432 
  dut_ft_pmu_ahb_Slvft.slv_ham_dec[54].slv_hamming32t26d_dec hamming32t26d_dec_54         180    725.600   233.474      959.074 
  dut_ft_pmu_ahb_Slvft.slv_ham_dec[37].slv_hamming32t26d_dec hamming32t26d_dec_37         169    723.200   220.175      943.375 
  dut_ft_pmu_ahb_Slvft.slv_ham_dec[55].slv_hamming32t26d_dec hamming32t26d_dec_55         166    710.800   214.893      925.693 
  dut_ft_pmu_ahb_Slvft.slv_ham_dec[53].slv_hamming32t26d_dec hamming32t26d_dec_53         170    659.200   220.202      879.402 
  dut_ft_pmu_ahb_Slvft.slv_ham_dec[56].slv_hamming32t26d_dec hamming32t26d_dec_56         158    645.200   204.276      849.476 
  dut_ft_pmu_ahb_Slvft.slv_ham_dec[46].slv_hamming32t26d_dec hamming32t26d_dec_46         143    546.000   179.949      725.949 
  dut_ft_pmu_ahb_Slvft.slv_ham_dec[57].slv_hamming32t26d_dec hamming32t26d_dec_57         133    537.600   170.426      708.026 
  dut_ft_pmu_ahb_Slvft.slv_ham_dec[49].slv_hamming32t26d_dec hamming32t26d_dec_49         135    520.800   166.212      687.012 
  dut_ft_pmu_ahb_Slvft.slv_ham_dec[41].slv_hamming32t26d_dec hamming32t26d_dec_41         134    498.400   165.145      663.545 
  dut_ft_pmu_ahb_Slvft.slv_ham_dec[45].slv_hamming32t26d_dec hamming32t26d_dec_45         114    446.000   134.442      580.442 
  dut_ft_pmu_ahb_Slvft.slv_ham_dec[51].slv_hamming32t26d_dec hamming32t26d_dec_51         110    447.600   130.693      578.293 
  dut_ft_pmu_ahb_Slvft.slv_ham_dec[52].slv_hamming32t26d_dec hamming32t26d_dec_52         112    440.800   131.787      572.587 
  dut_ft_pmu_ahb_Slvft.slv_ham_dec[43].slv_hamming32t26d_dec hamming32t26d_dec_43         112    432.400   131.267      563.667 
  dut_ft_pmu_ahb_Slvft.slv_ham_dec[42].slv_hamming32t26d_dec hamming32t26d_dec_42         109    433.600   128.066      561.666 
  dut_ft_pmu_ahb_Slvft.slv_ham_dec[50].slv_hamming32t26d_dec hamming32t26d_dec_50         107    431.200   125.931      557.131 
  dut_ft_pmu_ahb_Slvft.slv_ham_dec[44].slv_hamming32t26d_dec hamming32t26d_dec_44         107    429.200   126.971      556.171 
  dut_ft_pmu_ahb_Slvft.slv_ham_dec[32].slv_hamming32t26d_dec hamming32t26d_dec_32         103    413.600   120.623      534.223 
