============================================================
  Generated by:           Genus(TM) Synthesis Solution 19.11-s087_1
  Generated on:           Aug 17 2021  04:05:22 pm
  Module:                 top
  Operating conditions:   NCCOM 
  Operating conditions:   WCCOM 
  Operating conditions:   WCCOM 
  Operating conditions:   BCCOM 
  Interconnect mode:      global
  Area mode:              physical library
============================================================

Timing
--------

 Analysis view Clock Period 
----------------------------
view_typ       clk   2000.0 
view_slow      clk   2000.0 
view_superslow clk   2000.0 
view_fast      clk   2000.0 


   Analysis      Cost   Critical           Violating 
     View       Group  Path Slack   TNS      Paths   
-----------------------------------------------------
view_typ           C2C      698.5     0.0          0 
                   C2O      725.5     0.0          0 
                   clk   No paths     0.0          0 
               default   No paths     0.0          0 
                   I2C      787.1     0.0          0 
                   I2O      761.1     0.0          0 
-----------------------------------------------------
Total                                -0.0          0 
                                                     
view_slow          C2C     -100.7 -1151.7         41 
                   C2O        0.1     0.0          0 
                   clk   No paths     0.0          0 
               default   No paths     0.0          0 
                   I2C       63.7     0.0          0 
                   I2O       86.9     0.0          0 
-----------------------------------------------------
Total                             -1151.7         41 
                                                     
view_superslow     C2C      -51.2  -119.4          6 
                   C2O       45.2     0.0          0 
                   clk   No paths     0.0          0 
               default   No paths     0.0          0 
                   I2C      138.1     0.0          0 
                   I2O      150.7     0.0          0 
-----------------------------------------------------
Total                              -119.4          6 
                                                     
view_fast          C2C     1073.3     0.0          0 
                   C2O     1068.8     0.0          0 
                   clk   No paths     0.0          0 
               default   No paths     0.0          0 
                   I2C     1137.5     0.0          0 
                   I2O     1073.3     0.0          0 
-----------------------------------------------------
Total                                -0.0          0 
                                                     

Instance Count
--------------
Leaf Instance Count             52618 
Physical Instance count             0 
Sequential Instance Count        6030 
Combinational Instance Count    46588 
Hierarchical Instance Count        30 

Area
----
Cell Area                          227615.600
Physical Cell Area                 0.000
Total Cell Area (Cell+Physical)    227615.600
Net Area                           95183.978
Total Area (Cell+Physical+Net)     322799.578

Runtime                            333.1379990000001 seconds
Elapsed Runtime                    2312 seconds
Genus peak memory usage            1776.85 
Innovus peak memory usage          no_value 
Hostname                           epi03.bsc.es
