============================================================
  Generated by:           Genus(TM) Synthesis Solution 19.11-s087_1
  Generated on:           Aug 18 2021  04:24:06 pm
  Module:                 top_ft
  Operating conditions:   NCCOM 
  Operating conditions:   WCCOM 
  Operating conditions:   WCCOM 
  Operating conditions:   BCCOM 
  Interconnect mode:      global
  Area mode:              physical library
============================================================

Some unconstrained paths have not been displayed.
Use -unconstrained or set the root attribute 'timing_report_unconstrained' to 'true' to see only these unconstrained paths.


============================================================
  Generated by:           Genus(TM) Synthesis Solution 19.11-s087_1
  Generated on:           Aug 18 2021  04:24:06 pm
  Module:                 top_ft
  Operating conditions:   NCCOM 
  Operating conditions:   WCCOM 
  Operating conditions:   WCCOM 
  Operating conditions:   BCCOM 
  Interconnect mode:      global
  Area mode:              physical library
============================================================


Path 1: VIOLATED (-1046 ps) Setup Check with Pin dut_pmu_ahb/Slvft.ham_pbits_reg[192]/clk->d
           View: view_superslow
          Group: clk
     Startpoint: (R) dut_pmu_ahb/Apft.master_addr_trip/trip2_preg_reg[15]/clk
          Clock: (R) clk
       Endpoint: (R) dut_pmu_ahb/Slvft.ham_pbits_reg[192]/d
          Clock: (R) clk

                     Capture       Launch     
        Clock Edge:+    2000            0     
       Src Latency:+       0            0     
       Net Latency:+       0 (I)        0 (I) 
           Arrival:=    2000            0     
                                              
             Setup:-      75                  
     Required Time:=    1925                  
      Launch Clock:-       0                  
         Data Path:-    2971                  
             Slack:=   -1046                  

#--------------------------------------------------------------------------------------------------------------------------------------------------
#                          Timing Point                            Flags     Arc    Edge      Cell        Fanout Load Trans Delay Arrival Instance 
#                                                                                                                (fF)  (ps)  (ps)   (ps)  Location 
#--------------------------------------------------------------------------------------------------------------------------------------------------
  dut_pmu_ahb/Apft.master_addr_trip/trip2_preg_reg[15]/clk         -       -        R     (arrival)         4414    -     0     -       0    (-,-) 
  dut_pmu_ahb/Apft.master_addr_trip/trip2_preg_reg[15]/q           (u)     clk->q   R     unmapped_d_flop      3  9.6     0   220     220    (-,-) 
  dut_pmu_ahb/Apft.master_addr_trip/dut_way3/eq_60_24/g16/z        (u)     in_1->z  R     unmapped_xnor2       1  3.2     0    73     294    (-,-) 
  dut_pmu_ahb/Apft.master_addr_trip/dut_way3/eq_60_24/g36/z        (u)     in_3->z  F     unmapped_nand4       1  3.0     0    76     370    (-,-) 
  dut_pmu_ahb/Apft.master_addr_trip/dut_way3/eq_60_24/g41/z        (u)     in_3->z  R     unmapped_nor4        1  3.2     0    76     446    (-,-) 
  dut_pmu_ahb/Apft.master_addr_trip/dut_way3/eq_60_24/g43/z        (u)     in_1->z  F     unmapped_nand2       1  3.0     0    31     477    (-,-) 
  dut_pmu_ahb/Apft.master_addr_trip/dut_way3/eq_60_24/g44/z        (u)     in_0->z  R     unmapped_not        33 19.2     0    54     531    (-,-) 
  dut_pmu_ahb/Apft.master_addr_trip/dut_way3/mux_out_60_24/g29/z   (u)     sel0->z  R     unmapped_bmux3       1  3.2     0    73     604    (-,-) 
  dut_pmu_ahb/Apft.master_addr_trip/dut_way3/mux_out_56_20/g29/z   (u)     data0->z R     unmapped_bmux3       1  3.2     0    73     677    (-,-) 
  dut_pmu_ahb/Apft.master_addr_trip/dut_way3/mux_out_45_16/g29/z   (u)     data0->z R     unmapped_bmux3      73 28.8     0   115     792    (-,-) 
  dut_pmu_ahb/gte_591_72/g13/z                                     (u)     in_0->z  F     unmapped_nor2        1  3.0     0    31     823    (-,-) 
  dut_pmu_ahb/gte_591_72/g23/z                                     (u)     in_0->z  R     unmapped_not         1  3.2     0    22     845    (-,-) 
  dut_pmu_ahb/gte_591_72/g24/z                                     (u)     in_1->z  F     unmapped_nand2       1  3.0     0    31     877    (-,-) 
  dut_pmu_ahb/gte_591_72/g25/z                                     (u)     in_1->z  R     unmapped_nand2       1  3.2     0    31     908    (-,-) 
  dut_pmu_ahb/gte_591_72/g37/z                                     (u)     in_1->z  F     unmapped_nand2       1  3.0     0    31     940    (-,-) 
  dut_pmu_ahb/gte_591_72/g38/z                                     (u)     in_1->z  R     unmapped_nand2       1  3.2     0    31     971    (-,-) 
  dut_pmu_ahb/gte_591_72/g42/z                                     (u)     in_1->z  F     unmapped_nand2       1  3.0     0    31    1002    (-,-) 
  dut_pmu_ahb/gte_591_72/g43/z                                     (u)     in_1->z  R     unmapped_nand2       1  3.2     0    31    1034    (-,-) 
  dut_pmu_ahb/mux_591_72/g1/z                                      (u)     sel0->z  F     unmapped_bmux3       1  3.0     0    73    1107    (-,-) 
  dut_pmu_ahb/g278/z                                               (u)     in_0->z  R     unmapped_not         2  6.4     0    26    1133    (-,-) 
  dut_pmu_ahb/g279/z                                               (u)     in_1->z  R     unmapped_and2     3008 25.6     0   110    1243    (-,-) 
  dut_pmu_ahb/mux_slv_reg_Q[0]_403_68/g2/z                         (u)     sel0->z  R     unmapped_bmux3      28 19.2     0   105    1348    (-,-) 
  dut_pmu_ahb/inst_pmu_raw/mux_events_int_395_11/g21/z             (u)     sel0->z  R     unmapped_bmux6      12 38.4     0   168    1515    (-,-) 
  dut_pmu_ahb/inst_pmu_raw/inst_counters/g7/z                      (u)     in_0->z  R     unmapped_and2       32 19.2     0    63    1579    (-,-) 
  dut_pmu_ahb/inst_pmu_raw/inst_counters/mux_68_92/g16/z           (u)     sel0->z  R     unmapped_bmux3       2  6.4     0    77    1656    (-,-) 
  dut_pmu_ahb/inst_pmu_raw/inst_counters/mux_regs_o[3]_89_12/g16/z (u)     data0->z R     unmapped_bmux3       4 12.8     0    86    1742    (-,-) 
  dut_pmu_ahb/inst_pmu_raw/inst_overflow/g4/g4/z                   (u)     in_3->z  F     unmapped_nand4       1  3.0     0    76    1818    (-,-) 
  dut_pmu_ahb/inst_pmu_raw/inst_overflow/g4/g9/z                   (u)     in_3->z  R     unmapped_nor4        1  3.2     0    76    1894    (-,-) 
  dut_pmu_ahb/inst_pmu_raw/inst_overflow/g4/g11/z                  (u)     in_1->z  F     unmapped_nand2       1  3.0     0    31    1925    (-,-) 
  dut_pmu_ahb/inst_pmu_raw/inst_overflow/g4/g12/z                  (u)     in_0->z  R     unmapped_not         1  3.2     0    22    1947    (-,-) 
  dut_pmu_ahb/inst_pmu_raw/inst_overflow/g28/z                     (u)     in_0->z  R     unmapped_and2        3  9.6     0    40    1987    (-,-) 
  dut_pmu_ahb/inst_pmu_raw/inst_overflow/g55/g4/z                  (u)     in_0->z  R     unmapped_or2         1  3.2     0    31    2018    (-,-) 
  dut_pmu_ahb/inst_pmu_raw/inst_overflow/mux_96_31/g21/z           (u)     data0->z R     unmapped_bmux3       1  3.2     0    73    2092    (-,-) 
  dut_pmu_ahb/inst_pmu_raw/mux_274_41/g21/z                        (u)     data0->z R     unmapped_bmux3       2  6.4     0    77    2169    (-,-) 
  dut_pmu_ahb/mux_slv_reg_D[26]_409_21/g60/z                       (u)     data1->z R     unmapped_mux4        1  3.2     0    51    2220    (-,-) 
  dut_pmu_ahb/mux_slv_reg_D[26]_403_68/g29/z                       (u)     data1->z R     unmapped_bmux3       5 16.0     0    89    2309    (-,-) 
  dut_pmu_ahb/Slvft.slv_ham_enc[32].slv_hamming32t26d_enc/g3/g3/z  (u)     in_0->z  R     unmapped_xor2        1  3.2     0    73    2382    (-,-) 
  dut_pmu_ahb/Slvft.slv_ham_enc[32].slv_hamming32t26d_enc/g3/g10/z (u)     in_1->z  R     unmapped_xor2        1  3.2     0    73    2455    (-,-) 
  dut_pmu_ahb/Slvft.slv_ham_enc[32].slv_hamming32t26d_enc/g3/g13/z (u)     in_0->z  R     unmapped_xor2        1  3.2     0    73    2528    (-,-) 
  dut_pmu_ahb/Slvft.slv_ham_enc[32].slv_hamming32t26d_enc/g3/g14/z (u)     in_1->z  R     unmapped_xor2        2  6.4     0    77    2606    (-,-) 
  dut_pmu_ahb/Slvft.slv_ham_enc[32].slv_hamming32t26d_enc/g6/g3/z  (u)     in_1->z  R     unmapped_xor2        1  3.2     0    73    2679    (-,-) 
  dut_pmu_ahb/Slvft.slv_ham_enc[32].slv_hamming32t26d_enc/g6/g19/z (u)     in_1->z  R     unmapped_xor2        1  3.2     0    73    2752    (-,-) 
  dut_pmu_ahb/Slvft.slv_ham_enc[32].slv_hamming32t26d_enc/g6/g25/z (u)     in_1->z  R     unmapped_xor2        1  3.2     0    73    2825    (-,-) 
  dut_pmu_ahb/Slvft.slv_ham_enc[32].slv_hamming32t26d_enc/g6/g29/z (u)     in_1->z  R     unmapped_xor2        1  3.2     0    73    2898    (-,-) 
  dut_pmu_ahb/Slvft.slv_ham_enc[32].slv_hamming32t26d_enc/g6/g30/z (u)     in_1->z  R     unmapped_xor2        1  3.2     0    73    2971    (-,-) 
  dut_pmu_ahb/Slvft.ham_pbits_reg[192]/d                           -       -        R     unmapped_d_flop      1    -     -     0    2971    (-,-) 
#--------------------------------------------------------------------------------------------------------------------------------------------------

(u) : Net has unmapped pin(s).


============================================================
  Generated by:           Genus(TM) Synthesis Solution 19.11-s087_1
  Generated on:           Aug 18 2021  04:24:09 pm
  Module:                 top_ft
  Operating conditions:   NCCOM 
  Operating conditions:   WCCOM 
  Operating conditions:   WCCOM 
  Operating conditions:   BCCOM 
  Interconnect mode:      global
  Area mode:              physical library
============================================================


Path 1: VIOLATED (-133 ps) Setup Check with Pin dut_pmu_ahb/Slvft.ham_pbits_reg[192]/clk->d
           View: view_slow
          Group: I2C
     Startpoint: (R) hwdata_i[30]
          Clock: (R) clk
       Endpoint: (R) dut_pmu_ahb/Slvft.ham_pbits_reg[192]/d
          Clock: (R) clk

                     Capture       Launch     
        Clock Edge:+    2000            0     
        Drv Adjust:+       0            0     
       Src Latency:+       0            0     
       Net Latency:+       0 (I)        0 (I) 
           Arrival:=    2000            0     
                                              
             Setup:-      75                  
     Required Time:=    1925                  
      Launch Clock:-       0                  
       Input Delay:-     100                  
         Data Path:-    1958                  
             Slack:=    -133                  

Exceptions/Constraints:
  input_delay             100             top_ft_65.sdc_1_line_11_200_1 

#--------------------------------------------------------------------------------------------------------------------------------------------------
#                          Timing Point                            Flags     Arc    Edge      Cell        Fanout Load Trans Delay Arrival Instance 
#                                                                                                                (fF)  (ps)  (ps)   (ps)  Location 
#--------------------------------------------------------------------------------------------------------------------------------------------------
  hwdata_i[30]                                                     (u)     -        R     (arrival)            2  6.4   200     0     100    (-,-) 
  dut_pmu_ahb/mux_dwrite_slave_500_15/g2/z                         (u)     data3->z R     unmapped_bmux6      94 32.0     0   179     279    (-,-) 
  dut_pmu_ahb/mux_slv_reg_Q[0]_407_21/g33/z                        (u)     data0->z R     unmapped_mux4        1  3.2     0    51     330    (-,-) 
  dut_pmu_ahb/mux_slv_reg_Q[0]_403_68/g2/z                         (u)     data1->z R     unmapped_bmux3      28 19.2     0   105     435    (-,-) 
  dut_pmu_ahb/inst_pmu_raw/mux_events_int_395_11/g21/z             (u)     sel0->z  R     unmapped_bmux6      12 38.4     0   168     603    (-,-) 
  dut_pmu_ahb/inst_pmu_raw/inst_counters/g7/z                      (u)     in_0->z  R     unmapped_and2       32 19.2     0    63     666    (-,-) 
  dut_pmu_ahb/inst_pmu_raw/inst_counters/mux_68_92/g16/z           (u)     sel0->z  R     unmapped_bmux3       2  6.4     0    77     743    (-,-) 
  dut_pmu_ahb/inst_pmu_raw/inst_counters/mux_regs_o[3]_89_12/g16/z (u)     data0->z R     unmapped_bmux3       4 12.8     0    86     829    (-,-) 
  dut_pmu_ahb/inst_pmu_raw/inst_overflow/g4/g4/z                   (u)     in_3->z  F     unmapped_nand4       1  3.0     0    76     905    (-,-) 
  dut_pmu_ahb/inst_pmu_raw/inst_overflow/g4/g9/z                   (u)     in_3->z  R     unmapped_nor4        1  3.2     0    76     981    (-,-) 
  dut_pmu_ahb/inst_pmu_raw/inst_overflow/g4/g11/z                  (u)     in_1->z  F     unmapped_nand2       1  3.0     0    31    1012    (-,-) 
  dut_pmu_ahb/inst_pmu_raw/inst_overflow/g4/g12/z                  (u)     in_0->z  R     unmapped_not         1  3.2     0    22    1034    (-,-) 
  dut_pmu_ahb/inst_pmu_raw/inst_overflow/g28/z                     (u)     in_0->z  R     unmapped_and2        3  9.6     0    40    1074    (-,-) 
  dut_pmu_ahb/inst_pmu_raw/inst_overflow/g55/g4/z                  (u)     in_0->z  R     unmapped_or2         1  3.2     0    31    1106    (-,-) 
  dut_pmu_ahb/inst_pmu_raw/inst_overflow/mux_96_31/g21/z           (u)     data0->z R     unmapped_bmux3       1  3.2     0    73    1179    (-,-) 
  dut_pmu_ahb/inst_pmu_raw/mux_274_41/g21/z                        (u)     data0->z R     unmapped_bmux3       2  6.4     0    77    1256    (-,-) 
  dut_pmu_ahb/mux_slv_reg_D[26]_409_21/g60/z                       (u)     data1->z R     unmapped_mux4        1  3.2     0    51    1307    (-,-) 
  dut_pmu_ahb/mux_slv_reg_D[26]_403_68/g29/z                       (u)     data1->z R     unmapped_bmux3       5 16.0     0    89    1396    (-,-) 
  dut_pmu_ahb/Slvft.slv_ham_enc[32].slv_hamming32t26d_enc/g3/g3/z  (u)     in_0->z  R     unmapped_xor2        1  3.2     0    73    1469    (-,-) 
  dut_pmu_ahb/Slvft.slv_ham_enc[32].slv_hamming32t26d_enc/g3/g10/z (u)     in_1->z  R     unmapped_xor2        1  3.2     0    73    1542    (-,-) 
  dut_pmu_ahb/Slvft.slv_ham_enc[32].slv_hamming32t26d_enc/g3/g13/z (u)     in_0->z  R     unmapped_xor2        1  3.2     0    73    1615    (-,-) 
  dut_pmu_ahb/Slvft.slv_ham_enc[32].slv_hamming32t26d_enc/g3/g14/z (u)     in_1->z  R     unmapped_xor2        2  6.4     0    77    1693    (-,-) 
  dut_pmu_ahb/Slvft.slv_ham_enc[32].slv_hamming32t26d_enc/g6/g3/z  (u)     in_1->z  R     unmapped_xor2        1  3.2     0    73    1766    (-,-) 
  dut_pmu_ahb/Slvft.slv_ham_enc[32].slv_hamming32t26d_enc/g6/g19/z (u)     in_1->z  R     unmapped_xor2        1  3.2     0    73    1839    (-,-) 
  dut_pmu_ahb/Slvft.slv_ham_enc[32].slv_hamming32t26d_enc/g6/g25/z (u)     in_1->z  R     unmapped_xor2        1  3.2     0    73    1912    (-,-) 
  dut_pmu_ahb/Slvft.slv_ham_enc[32].slv_hamming32t26d_enc/g6/g29/z (u)     in_1->z  R     unmapped_xor2        1  3.2     0    73    1985    (-,-) 
  dut_pmu_ahb/Slvft.slv_ham_enc[32].slv_hamming32t26d_enc/g6/g30/z (u)     in_1->z  R     unmapped_xor2        1  3.2     0    73    2058    (-,-) 
  dut_pmu_ahb/Slvft.ham_pbits_reg[192]/d                           -       -        R     unmapped_d_flop      1    -     -     0    2058    (-,-) 
#--------------------------------------------------------------------------------------------------------------------------------------------------

(u) : Net has unmapped pin(s).


============================================================
  Generated by:           Genus(TM) Synthesis Solution 19.11-s087_1
  Generated on:           Aug 18 2021  04:24:13 pm
  Module:                 top_ft
  Operating conditions:   NCCOM 
  Operating conditions:   WCCOM 
  Operating conditions:   WCCOM 
  Operating conditions:   BCCOM 
  Interconnect mode:      global
  Area mode:              physical library
============================================================


Path 1: VIOLATED (-617 ps) Late External Delay Assertion at pin intr_FT2_o
           View: view_slow
          Group: C2O
     Startpoint: (R) dut_pmu_ahb/Apft.master_addr_trip/trip2_preg_reg[15]/clk
          Clock: (R) clk
       Endpoint: (R) intr_FT2_o
          Clock: (R) clk

                     Capture       Launch     
        Clock Edge:+    2000            0     
       Src Latency:+       0            0     
       Net Latency:+       0 (I)        0 (I) 
           Arrival:=    2000            0     
                                              
      Output Delay:-     100                  
     Required Time:=    1900                  
      Launch Clock:-       0                  
         Data Path:-    2517                  
             Slack:=    -617                  

Exceptions/Constraints:
  output_delay             100             top_ft_65.sdc_1_line_12_310_1 

#---------------------------------------------------------------------------------------------------------------------------------------------------------
#                             Timing Point                               Flags     Arc    Edge      Cell        Fanout  Load Trans Delay Arrival Instance 
#                                                                                                                       (fF)  (ps)  (ps)   (ps)  Location 
#---------------------------------------------------------------------------------------------------------------------------------------------------------
  dut_pmu_ahb/Apft.master_addr_trip/trip2_preg_reg[15]/clk               -       -        R     (arrival)         4414     -     0     -       0    (-,-) 
  dut_pmu_ahb/Apft.master_addr_trip/trip2_preg_reg[15]/q                 (u)     clk->q   R     unmapped_d_flop      3   9.6     0   220     220    (-,-) 
  dut_pmu_ahb/Apft.master_addr_trip/dut_way3/eq_60_24/g16/z              (u)     in_1->z  R     unmapped_xnor2       1   3.2     0    73     294    (-,-) 
  dut_pmu_ahb/Apft.master_addr_trip/dut_way3/eq_60_24/g36/z              (u)     in_3->z  F     unmapped_nand4       1   3.0     0    76     370    (-,-) 
  dut_pmu_ahb/Apft.master_addr_trip/dut_way3/eq_60_24/g41/z              (u)     in_3->z  R     unmapped_nor4        1   3.2     0    76     446    (-,-) 
  dut_pmu_ahb/Apft.master_addr_trip/dut_way3/eq_60_24/g43/z              (u)     in_1->z  F     unmapped_nand2       1   3.0     0    31     477    (-,-) 
  dut_pmu_ahb/Apft.master_addr_trip/dut_way3/eq_60_24/g44/z              (u)     in_0->z  R     unmapped_not        33  19.2     0    54     531    (-,-) 
  dut_pmu_ahb/Apft.master_addr_trip/dut_way3/mux_out_60_24/g29/z         (u)     sel0->z  R     unmapped_bmux3       1   3.2     0    73     604    (-,-) 
  dut_pmu_ahb/Apft.master_addr_trip/dut_way3/mux_out_56_20/g29/z         (u)     data0->z R     unmapped_bmux3       1   3.2     0    73     677    (-,-) 
  dut_pmu_ahb/Apft.master_addr_trip/dut_way3/mux_out_45_16/g29/z         (u)     data0->z R     unmapped_bmux3      73  28.8     0   115     792    (-,-) 
  dut_pmu_ahb/gte_591_72/g13/z                                           (u)     in_0->z  F     unmapped_nor2        1   3.0     0    31     823    (-,-) 
  dut_pmu_ahb/gte_591_72/g23/z                                           (u)     in_0->z  R     unmapped_not         1   3.2     0    22     845    (-,-) 
  dut_pmu_ahb/gte_591_72/g24/z                                           (u)     in_1->z  F     unmapped_nand2       1   3.0     0    31     877    (-,-) 
  dut_pmu_ahb/gte_591_72/g25/z                                           (u)     in_1->z  R     unmapped_nand2       1   3.2     0    31     908    (-,-) 
  dut_pmu_ahb/gte_591_72/g37/z                                           (u)     in_1->z  F     unmapped_nand2       1   3.0     0    31     940    (-,-) 
  dut_pmu_ahb/gte_591_72/g38/z                                           (u)     in_1->z  R     unmapped_nand2       1   3.2     0    31     971    (-,-) 
  dut_pmu_ahb/gte_591_72/g42/z                                           (u)     in_1->z  F     unmapped_nand2       1   3.0     0    31    1002    (-,-) 
  dut_pmu_ahb/gte_591_72/g43/z                                           (u)     in_1->z  R     unmapped_nand2       1   3.2     0    31    1034    (-,-) 
  dut_pmu_ahb/mux_591_72/g1/z                                            (u)     sel0->z  F     unmapped_bmux3       1   3.0     0    73    1107    (-,-) 
  dut_pmu_ahb/g278/z                                                     (u)     in_0->z  R     unmapped_not         2   6.4     0    26    1133    (-,-) 
  dut_pmu_ahb/g279/z                                                     (u)     in_1->z  R     unmapped_and2     3008  25.6     0   110    1243    (-,-) 
  dut_pmu_ahb/mux_slv_reg_Q[39]_403_68/g31/z                             (u)     sel0->z  F     unmapped_bmux3       8  24.0     0    97    1340    (-,-) 
  dut_pmu_ahb/inst_pmu_raw/Rdctrip.inst1_RDC/gte_100_58_I3_I1/g9/z       (u)     in_0->z  R     unmapped_not         2   6.4     0    26    1366    (-,-) 
  dut_pmu_ahb/inst_pmu_raw/Rdctrip.inst1_RDC/gte_100_58_I3_I1/g15/z      (u)     in_1->z  F     unmapped_nor2        1   3.0     0    31    1398    (-,-) 
  dut_pmu_ahb/inst_pmu_raw/Rdctrip.inst1_RDC/gte_100_58_I3_I1/g29/z      (u)     in_0->z  R     unmapped_not         1   3.2     0    22    1420    (-,-) 
  dut_pmu_ahb/inst_pmu_raw/Rdctrip.inst1_RDC/gte_100_58_I3_I1/g30/z      (u)     in_1->z  F     unmapped_nand2       1   3.0     0    31    1451    (-,-) 
  dut_pmu_ahb/inst_pmu_raw/Rdctrip.inst1_RDC/gte_100_58_I3_I1/g31/z      (u)     in_1->z  R     unmapped_nand2       1   3.2     0    31    1482    (-,-) 
  dut_pmu_ahb/inst_pmu_raw/Rdctrip.inst1_RDC/gte_100_58_I3_I1/g47/z      (u)     in_1->z  F     unmapped_nand2       1   3.0     0    31    1514    (-,-) 
  dut_pmu_ahb/inst_pmu_raw/Rdctrip.inst1_RDC/gte_100_58_I3_I1/g48/z      (u)     in_1->z  R     unmapped_nand2       1   3.2     0    31    1545    (-,-) 
  dut_pmu_ahb/inst_pmu_raw/Rdctrip.inst1_RDC/gte_100_58_I3_I1/g68/z      (u)     in_0->z  F     unmapped_nand2       1   3.0     0    31    1577    (-,-) 
  dut_pmu_ahb/inst_pmu_raw/Rdctrip.inst1_RDC/gte_100_58_I3_I1/g69/z      (u)     in_1->z  R     unmapped_nand2       1   3.2     0    31    1608    (-,-) 
  dut_pmu_ahb/inst_pmu_raw/Rdctrip.inst1_RDC/mux_100_89/g1/z             (u)     sel0->z  R     unmapped_bmux3       2   6.4     0    77    1685    (-,-) 
  dut_pmu_ahb/inst_pmu_raw/Rdctrip.inst1_RDC/g29/g1/z                    (u)     in_3->z  F     unmapped_nor4        1   3.0     0    76    1761    (-,-) 
  dut_pmu_ahb/inst_pmu_raw/Rdctrip.inst1_RDC/g29/g3/z                    (u)     in_1->z  R     unmapped_nand2       1   3.2     0    31    1793    (-,-) 
  dut_pmu_ahb/inst_pmu_raw/Rdctrip.inst1_RDC/g123/z                      (u)     in_0->z  R     unmapped_or2         4  12.8     0    44    1837    (-,-) 
  dut_pmu_ahb/inst_pmu_raw/Rdctrip.intr_RDC_way3/g7/z                    (u)     in_0->z  R     unmapped_xnor2       2   6.4     0    77    1914    (-,-) 
  dut_pmu_ahb/inst_pmu_raw/Rdctrip.intr_RDC_way3/mux_error2_o_60_24/g1/z (u)     sel0->z  R     unmapped_bmux3       1   3.2     0    73    1987    (-,-) 
  dut_pmu_ahb/inst_pmu_raw/Rdctrip.intr_RDC_way3/mux_error2_o_56_20/g1/z (u)     data0->z R     unmapped_bmux3       1   3.2     0    73    2060    (-,-) 
  dut_pmu_ahb/inst_pmu_raw/Rdctrip.intr_RDC_way3/mux_error2_o_45_16/g1/z (u)     data0->z R     unmapped_bmux3       1   3.2     0    73    2133    (-,-) 
  dut_pmu_ahb/inst_pmu_raw/g10/g1/z                                      (u)     in_1->z  F     unmapped_nor4        1   3.0     0    76    2210    (-,-) 
  dut_pmu_ahb/inst_pmu_raw/g10/g3/z                                      (u)     in_1->z  R     unmapped_nand2       1   3.2     0    31    2241    (-,-) 
  dut_pmu_ahb/g118/g16/z                                                 (u)     in_2->z  F     unmapped_nor3        1   3.0     0    49    2290    (-,-) 
  dut_pmu_ahb/g118/g20/z                                                 (u)     in_3->z  R     unmapped_nand4       1   3.2     0    76    2366    (-,-) 
  dut_pmu_ahb/g118/g21/z                                                 (u)     in_3->z  F     unmapped_nor4        1   3.0     0    76    2442    (-,-) 
  dut_pmu_ahb/g118/g22/z                                                 (u)     in_0->z  R     unmapped_not         1 502.6     0    75    2517    (-,-) 
  intr_FT2_o                                                             -       -        R     (port)               -     -     -     0    2517    (-,-) 
#---------------------------------------------------------------------------------------------------------------------------------------------------------

(u) : Net has unmapped pin(s).


============================================================
  Generated by:           Genus(TM) Synthesis Solution 19.11-s087_1
  Generated on:           Aug 18 2021  04:24:15 pm
  Module:                 top_ft
  Operating conditions:   NCCOM 
  Operating conditions:   WCCOM 
  Operating conditions:   WCCOM 
  Operating conditions:   BCCOM 
  Interconnect mode:      global
  Area mode:              physical library
============================================================


Path 1: VIOLATED (-1046 ps) Setup Check with Pin dut_pmu_ahb/Slvft.ham_pbits_reg[192]/clk->d
           View: view_slow
          Group: C2C
     Startpoint: (R) dut_pmu_ahb/Apft.master_addr_trip/trip2_preg_reg[15]/clk
          Clock: (R) clk
       Endpoint: (R) dut_pmu_ahb/Slvft.ham_pbits_reg[192]/d
          Clock: (R) clk

                     Capture       Launch     
        Clock Edge:+    2000            0     
       Src Latency:+       0            0     
       Net Latency:+       0 (I)        0 (I) 
           Arrival:=    2000            0     
                                              
             Setup:-      75                  
     Required Time:=    1925                  
      Launch Clock:-       0                  
         Data Path:-    2971                  
             Slack:=   -1046                  

#--------------------------------------------------------------------------------------------------------------------------------------------------
#                          Timing Point                            Flags     Arc    Edge      Cell        Fanout Load Trans Delay Arrival Instance 
#                                                                                                                (fF)  (ps)  (ps)   (ps)  Location 
#--------------------------------------------------------------------------------------------------------------------------------------------------
  dut_pmu_ahb/Apft.master_addr_trip/trip2_preg_reg[15]/clk         -       -        R     (arrival)         4414    -     0     -       0    (-,-) 
  dut_pmu_ahb/Apft.master_addr_trip/trip2_preg_reg[15]/q           (u)     clk->q   R     unmapped_d_flop      3  9.6     0   220     220    (-,-) 
  dut_pmu_ahb/Apft.master_addr_trip/dut_way3/eq_60_24/g16/z        (u)     in_1->z  R     unmapped_xnor2       1  3.2     0    73     294    (-,-) 
  dut_pmu_ahb/Apft.master_addr_trip/dut_way3/eq_60_24/g36/z        (u)     in_3->z  F     unmapped_nand4       1  3.0     0    76     370    (-,-) 
  dut_pmu_ahb/Apft.master_addr_trip/dut_way3/eq_60_24/g41/z        (u)     in_3->z  R     unmapped_nor4        1  3.2     0    76     446    (-,-) 
  dut_pmu_ahb/Apft.master_addr_trip/dut_way3/eq_60_24/g43/z        (u)     in_1->z  F     unmapped_nand2       1  3.0     0    31     477    (-,-) 
  dut_pmu_ahb/Apft.master_addr_trip/dut_way3/eq_60_24/g44/z        (u)     in_0->z  R     unmapped_not        33 19.2     0    54     531    (-,-) 
  dut_pmu_ahb/Apft.master_addr_trip/dut_way3/mux_out_60_24/g29/z   (u)     sel0->z  R     unmapped_bmux3       1  3.2     0    73     604    (-,-) 
  dut_pmu_ahb/Apft.master_addr_trip/dut_way3/mux_out_56_20/g29/z   (u)     data0->z R     unmapped_bmux3       1  3.2     0    73     677    (-,-) 
  dut_pmu_ahb/Apft.master_addr_trip/dut_way3/mux_out_45_16/g29/z   (u)     data0->z R     unmapped_bmux3      73 28.8     0   115     792    (-,-) 
  dut_pmu_ahb/gte_591_72/g13/z                                     (u)     in_0->z  F     unmapped_nor2        1  3.0     0    31     823    (-,-) 
  dut_pmu_ahb/gte_591_72/g23/z                                     (u)     in_0->z  R     unmapped_not         1  3.2     0    22     845    (-,-) 
  dut_pmu_ahb/gte_591_72/g24/z                                     (u)     in_1->z  F     unmapped_nand2       1  3.0     0    31     877    (-,-) 
  dut_pmu_ahb/gte_591_72/g25/z                                     (u)     in_1->z  R     unmapped_nand2       1  3.2     0    31     908    (-,-) 
  dut_pmu_ahb/gte_591_72/g37/z                                     (u)     in_1->z  F     unmapped_nand2       1  3.0     0    31     940    (-,-) 
  dut_pmu_ahb/gte_591_72/g38/z                                     (u)     in_1->z  R     unmapped_nand2       1  3.2     0    31     971    (-,-) 
  dut_pmu_ahb/gte_591_72/g42/z                                     (u)     in_1->z  F     unmapped_nand2       1  3.0     0    31    1002    (-,-) 
  dut_pmu_ahb/gte_591_72/g43/z                                     (u)     in_1->z  R     unmapped_nand2       1  3.2     0    31    1034    (-,-) 
  dut_pmu_ahb/mux_591_72/g1/z                                      (u)     sel0->z  F     unmapped_bmux3       1  3.0     0    73    1107    (-,-) 
  dut_pmu_ahb/g278/z                                               (u)     in_0->z  R     unmapped_not         2  6.4     0    26    1133    (-,-) 
  dut_pmu_ahb/g279/z                                               (u)     in_1->z  R     unmapped_and2     3008 25.6     0   110    1243    (-,-) 
  dut_pmu_ahb/mux_slv_reg_Q[0]_403_68/g2/z                         (u)     sel0->z  R     unmapped_bmux3      28 19.2     0   105    1348    (-,-) 
  dut_pmu_ahb/inst_pmu_raw/mux_events_int_395_11/g21/z             (u)     sel0->z  R     unmapped_bmux6      12 38.4     0   168    1515    (-,-) 
  dut_pmu_ahb/inst_pmu_raw/inst_counters/g7/z                      (u)     in_0->z  R     unmapped_and2       32 19.2     0    63    1579    (-,-) 
  dut_pmu_ahb/inst_pmu_raw/inst_counters/mux_68_92/g16/z           (u)     sel0->z  R     unmapped_bmux3       2  6.4     0    77    1656    (-,-) 
  dut_pmu_ahb/inst_pmu_raw/inst_counters/mux_regs_o[3]_89_12/g16/z (u)     data0->z R     unmapped_bmux3       4 12.8     0    86    1742    (-,-) 
  dut_pmu_ahb/inst_pmu_raw/inst_overflow/g4/g4/z                   (u)     in_3->z  F     unmapped_nand4       1  3.0     0    76    1818    (-,-) 
  dut_pmu_ahb/inst_pmu_raw/inst_overflow/g4/g9/z                   (u)     in_3->z  R     unmapped_nor4        1  3.2     0    76    1894    (-,-) 
  dut_pmu_ahb/inst_pmu_raw/inst_overflow/g4/g11/z                  (u)     in_1->z  F     unmapped_nand2       1  3.0     0    31    1925    (-,-) 
  dut_pmu_ahb/inst_pmu_raw/inst_overflow/g4/g12/z                  (u)     in_0->z  R     unmapped_not         1  3.2     0    22    1947    (-,-) 
  dut_pmu_ahb/inst_pmu_raw/inst_overflow/g28/z                     (u)     in_0->z  R     unmapped_and2        3  9.6     0    40    1987    (-,-) 
  dut_pmu_ahb/inst_pmu_raw/inst_overflow/g55/g4/z                  (u)     in_0->z  R     unmapped_or2         1  3.2     0    31    2018    (-,-) 
  dut_pmu_ahb/inst_pmu_raw/inst_overflow/mux_96_31/g21/z           (u)     data0->z R     unmapped_bmux3       1  3.2     0    73    2092    (-,-) 
  dut_pmu_ahb/inst_pmu_raw/mux_274_41/g21/z                        (u)     data0->z R     unmapped_bmux3       2  6.4     0    77    2169    (-,-) 
  dut_pmu_ahb/mux_slv_reg_D[26]_409_21/g60/z                       (u)     data1->z R     unmapped_mux4        1  3.2     0    51    2220    (-,-) 
  dut_pmu_ahb/mux_slv_reg_D[26]_403_68/g29/z                       (u)     data1->z R     unmapped_bmux3       5 16.0     0    89    2309    (-,-) 
  dut_pmu_ahb/Slvft.slv_ham_enc[32].slv_hamming32t26d_enc/g3/g3/z  (u)     in_0->z  R     unmapped_xor2        1  3.2     0    73    2382    (-,-) 
  dut_pmu_ahb/Slvft.slv_ham_enc[32].slv_hamming32t26d_enc/g3/g10/z (u)     in_1->z  R     unmapped_xor2        1  3.2     0    73    2455    (-,-) 
  dut_pmu_ahb/Slvft.slv_ham_enc[32].slv_hamming32t26d_enc/g3/g13/z (u)     in_0->z  R     unmapped_xor2        1  3.2     0    73    2528    (-,-) 
  dut_pmu_ahb/Slvft.slv_ham_enc[32].slv_hamming32t26d_enc/g3/g14/z (u)     in_1->z  R     unmapped_xor2        2  6.4     0    77    2606    (-,-) 
  dut_pmu_ahb/Slvft.slv_ham_enc[32].slv_hamming32t26d_enc/g6/g3/z  (u)     in_1->z  R     unmapped_xor2        1  3.2     0    73    2679    (-,-) 
  dut_pmu_ahb/Slvft.slv_ham_enc[32].slv_hamming32t26d_enc/g6/g19/z (u)     in_1->z  R     unmapped_xor2        1  3.2     0    73    2752    (-,-) 
  dut_pmu_ahb/Slvft.slv_ham_enc[32].slv_hamming32t26d_enc/g6/g25/z (u)     in_1->z  R     unmapped_xor2        1  3.2     0    73    2825    (-,-) 
  dut_pmu_ahb/Slvft.slv_ham_enc[32].slv_hamming32t26d_enc/g6/g29/z (u)     in_1->z  R     unmapped_xor2        1  3.2     0    73    2898    (-,-) 
  dut_pmu_ahb/Slvft.slv_ham_enc[32].slv_hamming32t26d_enc/g6/g30/z (u)     in_1->z  R     unmapped_xor2        1  3.2     0    73    2971    (-,-) 
  dut_pmu_ahb/Slvft.ham_pbits_reg[192]/d                           -       -        R     unmapped_d_flop      1    -     -     0    2971    (-,-) 
#--------------------------------------------------------------------------------------------------------------------------------------------------

(u) : Net has unmapped pin(s).


============================================================
  Generated by:           Genus(TM) Synthesis Solution 19.11-s087_1
  Generated on:           Aug 18 2021  04:24:19 pm
  Module:                 top_ft
  Operating conditions:   NCCOM 
  Operating conditions:   WCCOM 
  Operating conditions:   WCCOM 
  Operating conditions:   BCCOM 
  Interconnect mode:      global
  Area mode:              physical library
============================================================


Path 1: MET (295 ps) Late External Delay Assertion at pin intr_FT2_o
           View: view_slow
          Group: I2O
     Startpoint: (F) hwdata_i[1]
          Clock: (R) clk
       Endpoint: (R) intr_FT2_o
          Clock: (R) clk

                     Capture       Launch     
        Clock Edge:+    2000            0     
        Drv Adjust:+       0            0     
       Src Latency:+       0            0     
       Net Latency:+       0 (I)        0 (I) 
           Arrival:=    2000            0     
                                              
      Output Delay:-     100                  
     Required Time:=    1900                  
      Launch Clock:-       0                  
       Input Delay:-     100                  
         Data Path:-    1505                  
             Slack:=     295                  

Exceptions/Constraints:
  input_delay              100             top_ft_65.sdc_1_line_11_229_1 
  output_delay             100             top_ft_65.sdc_1_line_12_310_1 

#--------------------------------------------------------------------------------------------------------------------------------------------------------
#                             Timing Point                               Flags     Arc    Edge      Cell       Fanout  Load Trans Delay Arrival Instance 
#                                                                                                                      (fF)  (ps)  (ps)   (ps)  Location 
#--------------------------------------------------------------------------------------------------------------------------------------------------------
  hwdata_i[1]                                                            (u)     -        F     (arrival)           2   6.0   200     0     100    (-,-) 
  dut_pmu_ahb/mux_dwrite_slave_500_15/g31/z                              (u)     data3->z F     unmapped_bmux6     94  30.0     0   179     279    (-,-) 
  dut_pmu_ahb/mux_slv_reg_Q[39]_407_21/g62/z                             (u)     data0->z F     unmapped_mux4       1   3.0     0    51     330    (-,-) 
  dut_pmu_ahb/mux_slv_reg_Q[39]_403_68/g31/z                             (u)     data1->z F     unmapped_bmux3      8  24.0     0    97     427    (-,-) 
  dut_pmu_ahb/inst_pmu_raw/Rdctrip.inst1_RDC/gte_100_58_I3_I1/g9/z       (u)     in_0->z  R     unmapped_not        2   6.4     0    26     453    (-,-) 
  dut_pmu_ahb/inst_pmu_raw/Rdctrip.inst1_RDC/gte_100_58_I3_I1/g15/z      (u)     in_1->z  F     unmapped_nor2       1   3.0     0    31     485    (-,-) 
  dut_pmu_ahb/inst_pmu_raw/Rdctrip.inst1_RDC/gte_100_58_I3_I1/g29/z      (u)     in_0->z  R     unmapped_not        1   3.2     0    22     507    (-,-) 
  dut_pmu_ahb/inst_pmu_raw/Rdctrip.inst1_RDC/gte_100_58_I3_I1/g30/z      (u)     in_1->z  F     unmapped_nand2      1   3.0     0    31     538    (-,-) 
  dut_pmu_ahb/inst_pmu_raw/Rdctrip.inst1_RDC/gte_100_58_I3_I1/g31/z      (u)     in_1->z  R     unmapped_nand2      1   3.2     0    31     570    (-,-) 
  dut_pmu_ahb/inst_pmu_raw/Rdctrip.inst1_RDC/gte_100_58_I3_I1/g47/z      (u)     in_1->z  F     unmapped_nand2      1   3.0     0    31     601    (-,-) 
  dut_pmu_ahb/inst_pmu_raw/Rdctrip.inst1_RDC/gte_100_58_I3_I1/g48/z      (u)     in_1->z  R     unmapped_nand2      1   3.2     0    31     632    (-,-) 
  dut_pmu_ahb/inst_pmu_raw/Rdctrip.inst1_RDC/gte_100_58_I3_I1/g68/z      (u)     in_0->z  F     unmapped_nand2      1   3.0     0    31     664    (-,-) 
  dut_pmu_ahb/inst_pmu_raw/Rdctrip.inst1_RDC/gte_100_58_I3_I1/g69/z      (u)     in_1->z  R     unmapped_nand2      1   3.2     0    31     695    (-,-) 
  dut_pmu_ahb/inst_pmu_raw/Rdctrip.inst1_RDC/mux_100_89/g1/z             (u)     sel0->z  R     unmapped_bmux3      2   6.4     0    77     772    (-,-) 
  dut_pmu_ahb/inst_pmu_raw/Rdctrip.inst1_RDC/g29/g1/z                    (u)     in_3->z  F     unmapped_nor4       1   3.0     0    76     849    (-,-) 
  dut_pmu_ahb/inst_pmu_raw/Rdctrip.inst1_RDC/g29/g3/z                    (u)     in_1->z  R     unmapped_nand2      1   3.2     0    31     880    (-,-) 
  dut_pmu_ahb/inst_pmu_raw/Rdctrip.inst1_RDC/g123/z                      (u)     in_0->z  R     unmapped_or2        4  12.8     0    44     924    (-,-) 
  dut_pmu_ahb/inst_pmu_raw/Rdctrip.intr_RDC_way3/g7/z                    (u)     in_0->z  R     unmapped_xnor2      2   6.4     0    77    1001    (-,-) 
  dut_pmu_ahb/inst_pmu_raw/Rdctrip.intr_RDC_way3/mux_error2_o_60_24/g1/z (u)     sel0->z  R     unmapped_bmux3      1   3.2     0    73    1074    (-,-) 
  dut_pmu_ahb/inst_pmu_raw/Rdctrip.intr_RDC_way3/mux_error2_o_56_20/g1/z (u)     data0->z R     unmapped_bmux3      1   3.2     0    73    1148    (-,-) 
  dut_pmu_ahb/inst_pmu_raw/Rdctrip.intr_RDC_way3/mux_error2_o_45_16/g1/z (u)     data0->z R     unmapped_bmux3      1   3.2     0    73    1221    (-,-) 
  dut_pmu_ahb/inst_pmu_raw/g10/g1/z                                      (u)     in_1->z  F     unmapped_nor4       1   3.0     0    76    1297    (-,-) 
  dut_pmu_ahb/inst_pmu_raw/g10/g3/z                                      (u)     in_1->z  R     unmapped_nand2      1   3.2     0    31    1328    (-,-) 
  dut_pmu_ahb/g118/g16/z                                                 (u)     in_2->z  F     unmapped_nor3       1   3.0     0    49    1377    (-,-) 
  dut_pmu_ahb/g118/g20/z                                                 (u)     in_3->z  R     unmapped_nand4      1   3.2     0    76    1453    (-,-) 
  dut_pmu_ahb/g118/g21/z                                                 (u)     in_3->z  F     unmapped_nor4       1   3.0     0    76    1529    (-,-) 
  dut_pmu_ahb/g118/g22/z                                                 (u)     in_0->z  R     unmapped_not        1 502.6     0    75    1605    (-,-) 
  intr_FT2_o                                                             -       -        R     (port)              -     -     -     0    1605    (-,-) 
#--------------------------------------------------------------------------------------------------------------------------------------------------------

(u) : Net has unmapped pin(s).


